Design Informed Size Factor Estimation • disize
…
disize: A tool for size factor estimation

Leverage experimental design for size factor estimation by providing a design_formula to disize.

Currently, disize accepts either a count matrix counts and a metadata dataframe containing observation-level metadata(the predictors in your design!).

Note: the rows of counts should have the same names as the obs_name column in metadata. If counts has no row names, disize assumes it is ordered such that the row indices correspond to the row indices of metadata.

Examples

> dim(counts)
[1] 900 500

> metadata
# A tibble: 900 × 4
   obs_id batch_id donor cell_type
   <fct>  <fct>    <fct> <fct>
 1 1      1        1     1
 2 2      1        1     2
 3 3      1        1     3
 4 4      1        1     1
 5 5      1        1     2
 6 6      1        1     3
 7 7      1        1     1
 8 8      1        1     2
 9 9      1        1     3
10 10     1        1     1
# ℹ 890 more rows
# ℹ Use `print(n = ...)` to see more rows
…
